lesson5_student.utf8.md
…
Same solution using tidyr instear

#install.packages("tidyr")
library(tidyr) 

## 
## Attaching package: 'tidyr'

## The following object is masked from 'package:reshape2':
## 
##     smiths

spread(subset(pf.fc_by_age_gender, select = c('gender', 'age', 'median_friend_count')), gender, median_friend_count)

## # A tibble: 101 x 3
##      age female  male
##    <int>  <dbl> <dbl>
##  1    13   148   55  
##  2    14   224   92.5
##  3    15   276  106. 
##  4    16   258. 136  
##  5    17   246. 125  
##  6    18   243  122  
##  7    19   229  130  
##  8    20   190  112  
##  9    21   158  108  
## 10    22   124   97  
## # ... with 91 more rows
…
